%YAML 1.1
%TAG !u! tag:unity3d.com,2011:
--- !u!114 &11400000
MonoBehaviour:
  m_ObjectHideFlags: 0
  m_CorrespondingSourceObject: {fileID: 0}
  m_PrefabInstance: {fileID: 0}
  m_PrefabAsset: {fileID: 0}
  m_GameObject: {fileID: 0}
  m_Enabled: 1
  m_EditorHideFlags: 0
  m_Script: {fileID: 11500000, guid: 2f5b2a146f7669d48a3cd714da8751dd, type: 3}
  m_Name: salle3_shp_d2
  m_EditorClassIdentifier: 
  dialogKey: shp_s3_d2
  dialogBubble: 3
  nextDialogs:
  - {fileID: 11400000, guid: f2fc4cb4594f94540b5f3a988cfdf73b, type: 2}
  - {fileID: 11400000, guid: 178da945f452ab347b2be3c3fbed7458, type: 2}
