%YAML 1.1
%TAG !u! tag:unity3d.com,2011:
--- !u!114 &11400000
MonoBehaviour:
  m_ObjectHideFlags: 0
  m_CorrespondingSourceObject: {fileID: 0}
  m_PrefabInstance: {fileID: 0}
  m_PrefabAsset: {fileID: 0}
  m_GameObject: {fileID: 0}
  m_Enabled: 1
  m_EditorHideFlags: 0
  m_Script: {fileID: 11500000, guid: 2f5b2a146f7669d48a3cd714da8751dd, type: 3}
  m_Name: salle1_shp_d1
  m_EditorClassIdentifier: 
  dialogKey: shp_s1_d1
  dialogBubble: 3
  nextDialogs:
  - {fileID: 11400000, guid: ee2cdc5edeb781e43b881723afd0fa73, type: 2}
