%YAML 1.1
%TAG !u! tag:unity3d.com,2011:
--- !u!114 &11400000
MonoBehaviour:
  m_ObjectHideFlags: 0
  m_CorrespondingSourceObject: {fileID: 0}
  m_PrefabInstance: {fileID: 0}
  m_PrefabAsset: {fileID: 0}
  m_GameObject: {fileID: 0}
  m_Enabled: 1
  m_EditorHideFlags: 0
  m_Script: {fileID: 11500000, guid: afe9795e203dfcb4faa13abd1af23cff, type: 3}
  m_Name: salle1_bot_q1
  m_EditorClassIdentifier: 
  dialogKey: bot_s1_q1
  nextDialog: {fileID: 11400000, guid: cd3056147d3b1e44ea184277888fcbc8, type: 2}
