%YAML 1.1
%TAG !u! tag:unity3d.com,2011:
--- !u!114 &11400000
MonoBehaviour:
  m_ObjectHideFlags: 0
  m_CorrespondingSourceObject: {fileID: 0}
  m_PrefabInstance: {fileID: 0}
  m_PrefabAsset: {fileID: 0}
  m_GameObject: {fileID: 0}
  m_Enabled: 1
  m_EditorHideFlags: 0
  m_Script: {fileID: 11500000, guid: 2f5b2a146f7669d48a3cd714da8751dd, type: 3}
  m_Name: salle3_sci_d3
  m_EditorClassIdentifier: 
  dialogKey: sci_s3_d3
  dialogBubble: 2
  nextDialogs:
  - {fileID: 11400000, guid: fd6e357b4198cd84bb7e0a68f8488e0b, type: 2}
  - {fileID: 11400000, guid: cb978480a9c600e4293dad1acdd001c0, type: 2}
  - {fileID: 11400000, guid: 88796aadabb5cf9478a70d03fdc504ca, type: 2}
