%YAML 1.1
%TAG !u! tag:unity3d.com,2011:
--- !u!114 &11400000
MonoBehaviour:
  m_ObjectHideFlags: 0
  m_CorrespondingSourceObject: {fileID: 0}
  m_PrefabInstance: {fileID: 0}
  m_PrefabAsset: {fileID: 0}
  m_GameObject: {fileID: 0}
  m_Enabled: 1
  m_EditorHideFlags: 0
  m_Script: {fileID: 11500000, guid: 2f5b2a146f7669d48a3cd714da8751dd, type: 3}
  m_Name: salle2_sci_r2
  m_EditorClassIdentifier: 
  dialogKey: sci_s2_r2
  dialogBubble: 2
  nextDialogs: []
