%YAML 1.1
%TAG !u! tag:unity3d.com,2011:
--- !u!114 &11400000
MonoBehaviour:
  m_ObjectHideFlags: 0
  m_CorrespondingSourceObject: {fileID: 0}
  m_PrefabInstance: {fileID: 0}
  m_PrefabAsset: {fileID: 0}
  m_GameObject: {fileID: 0}
  m_Enabled: 1
  m_EditorHideFlags: 0
  m_Script: {fileID: 11500000, guid: afe9795e203dfcb4faa13abd1af23cff, type: 3}
  m_Name: salle2_bot_q2
  m_EditorClassIdentifier: 
  dialogKey: bot_s2_q2
  nextDialog: {fileID: 11400000, guid: eb285048aa9b6484db775b4146e99b26, type: 2}
