%YAML 1.1
%TAG !u! tag:unity3d.com,2011:
--- !u!114 &11400000
MonoBehaviour:
  m_ObjectHideFlags: 0
  m_CorrespondingSourceObject: {fileID: 0}
  m_PrefabInstance: {fileID: 0}
  m_PrefabAsset: {fileID: 0}
  m_GameObject: {fileID: 0}
  m_Enabled: 1
  m_EditorHideFlags: 0
  m_Script: {fileID: 11500000, guid: 2f5b2a146f7669d48a3cd714da8751dd, type: 3}
  m_Name: salle3_sci_r5
  m_EditorClassIdentifier: 
  dialogKey: sci_s3_r5
  dialogBubble: 2
  nextDialogs:
  - {fileID: 11400000, guid: cbd402f376eead44db95d2dd6cc75a49, type: 2}
  - {fileID: 11400000, guid: 88796aadabb5cf9478a70d03fdc504ca, type: 2}
